simulation/qsim/Temperature_Monitor.msim.vcd
$comment
	File created using the following command:
		vcd file Temperature_Monitor.msim.vcd -direction
$end
$date
	Wed Aug 25 20:47:41 2021
$end
$version
	ModelSim Version 2020.1
$end
$timescale
	1ps
$end

$scope module segments_controller_vlg_vec_tst $end
$var reg 1 ! clk $end
$var reg 4 " d1 [3:0] $end
$var reg 4 # d2 [3:0] $end
$var reg 4 $ d3 [3:0] $end
$var wire 1 % anodo [3] $end
$var wire 1 & anodo [2] $end
$var wire 1 ' anodo [1] $end
$var wire 1 ( anodo [0] $end
$var wire 1 ) catodo [6] $end
$var wire 1 * catodo [5] $end
$var wire 1 + catodo [4] $end
$var wire 1 , catodo [3] $end
$var wire 1 - catodo [2] $end
$var wire 1 . catodo [1] $end
$var wire 1 / catodo [0] $end
$var wire 1 0 ponto $end
$var wire 1 1 teste $end

$scope module i1 $end
$var wire 1 2 gnd $end
$var wire 1 3 vcc $end
$var wire 1 4 unknown $end
$var tri1 1 5 devclrn $end
$var tri1 1 6 devpor $end
$var tri1 1 7 devoe $end
$var wire 1 8 d1[0]~input_o $end
$var wire 1 9 d1[1]~input_o $end
$var wire 1 : d1[2]~input_o $end
$var wire 1 ; d1[3]~input_o $end
$var wire 1 < d2[0]~input_o $end
$var wire 1 = d2[1]~input_o $end
$var wire 1 > d2[2]~input_o $end
$var wire 1 ? d2[3]~input_o $end
$var wire 1 @ d3[0]~input_o $end
$var wire 1 A d3[1]~input_o $end
$var wire 1 B d3[2]~input_o $end
$var wire 1 C d3[3]~input_o $end
$var wire 1 D catodo[0]~output_o $end
$var wire 1 E catodo[1]~output_o $end
$var wire 1 F catodo[2]~output_o $end
$var wire 1 G catodo[3]~output_o $end
$var wire 1 H catodo[4]~output_o $end
$var wire 1 I catodo[5]~output_o $end
$var wire 1 J catodo[6]~output_o $end
$var wire 1 K anodo[0]~output_o $end
$var wire 1 L anodo[1]~output_o $end
$var wire 1 M anodo[2]~output_o $end
$var wire 1 N anodo[3]~output_o $end
$var wire 1 O ponto~output_o $end
$var wire 1 P teste~output_o $end
$var wire 1 Q clk~input_o $end
$var wire 1 R ref_clock|cont~4_combout $end
$var wire 1 S ref_clock|Add0~0_combout $end
$var wire 1 T ref_clock|Add0~1 $end
$var wire 1 U ref_clock|Add0~2_combout $end
$var wire 1 V ref_clock|Add0~3 $end
$var wire 1 W ref_clock|Add0~5 $end
$var wire 1 X ref_clock|Add0~6_combout $end
$var wire 1 Y ref_clock|Add0~7 $end
$var wire 1 Z ref_clock|Add0~8_combout $end
$var wire 1 [ ref_clock|Add0~9 $end
$var wire 1 \ ref_clock|Add0~10_combout $end
$var wire 1 ] ref_clock|Add0~11 $end
$var wire 1 ^ ref_clock|Add0~13 $end
$var wire 1 _ ref_clock|Add0~14_combout $end
$var wire 1 ` ref_clock|cont~5_combout $end
$var wire 1 a ref_clock|Add0~17 $end
$var wire 1 b ref_clock|Add0~18_combout $end
$var wire 1 c ref_clock|Add0~19 $end
$var wire 1 d ref_clock|Add0~20_combout $end
$var wire 1 e ref_clock|Add0~21 $end
$var wire 1 f ref_clock|Add0~22_combout $end
$var wire 1 g ref_clock|cont~2_combout $end
$var wire 1 h ref_clock|cont~3_combout $end
$var wire 1 i ref_clock|Add0~15 $end
$var wire 1 j ref_clock|Add0~16_combout $end
$var wire 1 k ref_clock|Equal0~2_combout $end
$var wire 1 l ref_clock|cont~1_combout $end
$var wire 1 m ref_clock|Add0~12_combout $end
$var wire 1 n ref_clock|Equal0~1_combout $end
$var wire 1 o ref_clock|cont~0_combout $end
$var wire 1 p ref_clock|Add0~4_combout $end
$var wire 1 q ref_clock|Equal0~0_combout $end
$var wire 1 r ref_clock|clock~0_combout $end
$var wire 1 s ref_clock|clock~q $end
$var wire 1 t teste~0_combout $end
$var wire 1 u teste~reg0_q $end
$var wire 1 v ref_clock|cont [11] $end
$var wire 1 w ref_clock|cont [10] $end
$var wire 1 x ref_clock|cont [9] $end
$var wire 1 y ref_clock|cont [8] $end
$var wire 1 z ref_clock|cont [7] $end
$var wire 1 { ref_clock|cont [6] $end
$var wire 1 | ref_clock|cont [5] $end
$var wire 1 } ref_clock|cont [4] $end
$var wire 1 ~ ref_clock|cont [3] $end
$var wire 1 !! ref_clock|cont [2] $end
$var wire 1 "! ref_clock|cont [1] $end
$var wire 1 #! ref_clock|cont [0] $end
$upscope $end
$upscope $end
$enddefinitions $end
#0
$dumpvars
0!
b0 "
b0 #
b0 $
0(
0'
0&
0%
0/
0.
0-
0,
0+
0*
0)
00
01
02
13
x4
15
16
17
08
09
0:
0;
0<
0=
0>
0?
0@
0A
0B
0C
0D
0E
0F
0G
0H
0I
0J
0K
0L
0M
0N
0O
0P
0Q
0R
1S
0T
0U
1V
0W
0X
1Y
0Z
0[
0\
1]
0^
0_
0`
0a
0b
1c
0d
0e
0f
1g
0h
1i
0j
0k
0l
0m
0n
0o
0p
0q
0r
0s
1t
0u
0#!
0"!
0!!
0~
0}
0|
0{
0z
0y
0x
0w
0v
$end
#1000
1!
1Q
1#!
1T
0S
1U
#2000
0!
0Q
#3000
1!
1Q
1"!
0#!
0V
0T
0U
1S
1p
1V
1U
0p
1o
0o
#4000
0!
0Q
#5000
1!
1Q
1#!
1T
0S
0V
0U
1p
1q
1o
#6000
0!
0Q
#7000
1!
1Q
1!!
0"!
0#!
1W
0p
1V
0T
1U
1S
0q
0W
1p
1X
0o
0U
1o
0X
#8000
0!
0Q
#9000
1!
1Q
1#!
1T
0S
1q
1U
0q
#10000
0!
0Q
#11000
1!
1Q
1"!
0#!
0V
0T
0U
1S
1W
0p
1V
1U
0W
1p
1X
0o
0X
1o
#12000
0!
0Q
#13000
1!
1Q
1#!
1T
0S
0V
0U
1W
0p
1q
0q
1X
0o
#14000
0!
0Q
#15000
1!
1Q
0!!
1~
0"!
0#!
0W
1p
0Y
1V
0T
0X
1U
1S
1Y
0p
1X
1o
1Z
0U
0Z
0o
#16000
0!
0Q
#17000
1!
1Q
1#!
1T
0S
1U
#18000
0!
0Q
#19000
1!
1Q
1"!
0#!
0V
0T
0U
1S
1p
1V
1U
0p
1o
0o
#20000
0!
0Q
#21000
1!
1Q
1#!
1T
0S
0V
0U
1p
1o
#22000
0!
0Q
#23000
1!
1Q
1!!
0"!
0#!
1W
0p
1V
0T
1U
1S
0Y
0W
1p
0X
0o
0U
1Y
1Z
1X
1o
0Z
#24000
0!
0Q
#25000
1!
1Q
1#!
1T
0S
1U
#26000
0!
0Q
#27000
1!
1Q
1"!
0#!
0V
0T
0U
1S
1W
0p
1V
1U
0Y
0W
1p
0X
0o
1Y
1Z
1X
1o
0Z
#28000
0!
0Q
#29000
1!
1Q
1#!
1T
0S
0V
0U
1W
0p
0Y
0X
0o
1Z
#30000
0!
0Q
#31000
1!
1Q
0!!
1}
0~
0"!
0#!
0W
1p
1[
1Y
1V
0T
0Z
1X
1U
1S
0[
0p
0X
1o
1\
1Z
0U
0\
0o
#32000
0!
0Q
#33000
1!
1Q
1#!
1T
0S
1U
#34000
0!
0Q
#35000
1!
1Q
1"!
0#!
0V
0T
0U
1S
1p
1V
1U
0p
1o
0o
#36000
0!
0Q
#37000
1!
1Q
1#!
1T
0S
0V
0U
1p
1q
1o
#38000
0!
0Q
#39000
1!
1Q
1!!
0"!
0#!
1W
0p
1V
0T
1U
1S
0q
0W
1p
1X
0o
0U
1o
0X
#40000
0!
0Q
#41000
1!
1Q
1#!
1T
0S
1q
1U
0q
#42000
0!
0Q
#43000
1!
1Q
1"!
0#!
0V
0T
0U
1S
1W
0p
1V
1U
0W
1p
1X
0o
0X
1o
#44000
0!
0Q
#45000
1!
1Q
1#!
1T
0S
0V
0U
1W
0p
1q
0q
1X
0o
#46000
0!
0Q
#47000
1!
1Q
0!!
1~
0"!
0#!
0W
1p
0Y
1V
0T
0X
1U
1S
1Y
1[
0p
1X
1o
0Z
0U
0[
1Z
1\
0o
0\
#48000
0!
0Q
#49000
1!
1Q
1#!
1T
0S
1U
#50000
0!
0Q
#51000
1!
1Q
1"!
0#!
0V
0T
0U
1S
1p
1V
1U
0p
1o
0o
#52000
0!
0Q
#53000
1!
1Q
1#!
1T
0S
0V
0U
1p
1o
#54000
0!
0Q
#55000
1!
1Q
1!!
0"!
0#!
1W
0p
1V
0T
1U
1S
0Y
0W
1p
0X
0o
0U
1[
1Y
0Z
1X
1o
0[
1\
1Z
0\
#56000
0!
0Q
#57000
1!
1Q
1#!
1T
0S
1U
#58000
0!
0Q
#59000
1!
1Q
1"!
0#!
0V
0T
0U
1S
1W
0p
1V
1U
0Y
0W
1p
0X
0o
1[
1Y
0Z
1X
1o
0[
1\
1Z
0\
#60000
0!
0Q
#61000
1!
1Q
1#!
1T
0S
0V
0U
1W
0p
0Y
0X
0o
1[
0Z
1\
#62000
0!
0Q
#63000
1!
1Q
0!!
1|
0}
0~
0"!
0#!
0W
1p
0]
0[
1Y
1V
0T
0\
1Z
1X
1U
1S
1m
1]
0p
0X
1o
1\
0Z
0U
0m
1l
0o
0l
#64000
0!
0Q
#65000
1!
1Q
1#!
1T
0S
1U
#66000
0!
0Q
#67000
1!
1Q
1"!
0#!
0V
0T
0U
1S
1p
1V
1U
0p
1o
0o
#68000
0!
0Q
#69000
1!
1Q
1#!
1T
0S
0V
0U
1p
1q
1o
#70000
0!
0Q
#71000
1!
1Q
1!!
0"!
0#!
1W
0p
1V
0T
1U
1S
0q
0W
1p
1X
0o
0U
1o
0X
#72000
0!
0Q
#73000
1!
1Q
1#!
1T
0S
1q
1U
0q
#74000
0!
0Q
#75000
1!
1Q
1"!
0#!
0V
0T
0U
1S
1W
0p
1V
1U
0W
1p
1X
0o
0X
1o
#76000
0!
0Q
#77000
1!
1Q
1#!
1T
0S
0V
0U
1W
0p
1q
0q
1X
0o
#78000
0!
0Q
#79000
1!
1Q
0!!
1~
0"!
0#!
0W
1p
0Y
1V
0T
0X
1U
1S
1Y
0p
1X
1o
1Z
0U
0Z
0o
#80000
0!
0Q
#81000
1!
1Q
1#!
1T
0S
1U
#82000
0!
0Q
#83000
1!
1Q
1"!
0#!
0V
0T
0U
1S
1p
1V
1U
0p
1o
0o
#84000
0!
0Q
#85000
1!
1Q
1#!
1T
0S
0V
0U
1p
1o
#86000
0!
0Q
#87000
1!
1Q
1!!
0"!
0#!
1W
0p
1V
0T
1U
1S
0Y
0W
1p
0X
0o
0U
1Y
1Z
1X
1o
0Z
#88000
0!
0Q
#89000
1!
1Q
1#!
1T
0S
1U
#90000
0!
0Q
#91000
1!
1Q
1"!
0#!
0V
0T
0U
1S
1W
0p
1V
1U
0Y
0W
1p
0X
0o
1Y
1Z
1X
1o
0Z
#92000
0!
0Q
#93000
1!
1Q
1#!
1T
0S
0V
0U
1W
0p
0Y
0X
0o
1Z
#94000
0!
0Q
#95000
1!
1Q
0!!
1}
0~
0"!
0#!
0W
1p
1[
1Y
1V
0T
0Z
1X
1U
1S
0]
0[
0p
0X
1o
0\
1Z
0U
1m
1]
1\
0o
0m
1l
0l
#96000
0!
0Q
#97000
1!
1Q
1#!
1T
0S
1U
#98000
0!
0Q
#99000
1!
1Q
1"!
0#!
0V
0T
0U
1S
1p
1V
1U
0p
1o
0o
#100000
0!
0Q
#101000
1!
1Q
1#!
1T
0S
0V
0U
1p
1q
1o
#102000
0!
0Q
#103000
1!
1Q
1!!
0"!
0#!
1W
0p
1V
0T
1U
1S
0q
0W
1p
1X
0o
0U
1o
0X
#104000
0!
0Q
#105000
1!
1Q
1#!
1T
0S
1q
1U
0q
#106000
0!
0Q
#107000
1!
1Q
1"!
0#!
0V
0T
0U
1S
1W
0p
1V
1U
0W
1p
1X
0o
0X
1o
#108000
0!
0Q
#109000
1!
1Q
1#!
1T
0S
0V
0U
1W
0p
1q
0q
1X
0o
#110000
0!
0Q
#111000
1!
1Q
0!!
1~
0"!
0#!
0W
1p
0Y
1V
0T
0X
1U
1S
1Y
1[
0p
1X
1o
0Z
0U
0[
0]
1Z
0\
0o
1]
1m
1\
0m
1l
0l
#112000
0!
0Q
#113000
1!
1Q
1#!
1T
0S
1U
#114000
0!
0Q
#115000
1!
1Q
1"!
0#!
0V
0T
0U
1S
1p
1V
1U
0p
1o
0o
#116000
0!
0Q
#117000
1!
1Q
1#!
1T
0S
0V
0U
1p
1o
#118000
0!
0Q
#119000
1!
1Q
1!!
0"!
0#!
1W
0p
1V
0T
1U
1S
0Y
0W
1p
0X
0o
0U
1[
1Y
0Z
1X
1o
0]
0[
0\
1Z
1m
1]
1\
0m
1l
0l
#120000
0!
0Q
#121000
1!
1Q
1#!
1T
0S
1U
#122000
0!
0Q
#123000
1!
1Q
1"!
0#!
0V
0T
0U
1S
1W
0p
1V
1U
0Y
0W
1p
0X
0o
1[
1Y
0Z
1X
1o
0]
0[
0\
1Z
1m
1]
1\
0m
1l
0l
#124000
0!
0Q
#125000
1!
1Q
1#!
1T
0S
0V
0U
1W
0p
0Y
0X
0o
1[
0Z
0]
0\
1m
1l
#126000
0!
0Q
#127000
1!
1Q
0!!
1{
0|
0}
0~
0"!
0#!
0W
1p
1^
0m
1]
0[
1Y
1V
0T
1\
1Z
1X
1U
1S
1_
0^
1m
0p
0X
1o
0l
0\
0Z
0U
1n
0_
1h
1l
0o
0n
0h
#128000
0!
0Q
#129000
1!
1Q
1#!
1T
0S
1U
#130000
0!
0Q
#131000
1!
1Q
1"!
0#!
0V
0T
0U
1S
1p
1V
1U
0p
1o
0o
#132000
0!
0Q
#133000
1!
1Q
1#!
1T
0S
0V
0U
1p
1q
1o
#134000
0!
0Q
#135000
1!
1Q
1!!
0"!
0#!
1W
0p
1V
0T
1U
1S
0q
0W
1p
1X
0o
0U
1o
0X
#136000
0!
0Q
#137000
1!
1Q
1#!
1T
0S
1q
1U
0q
#138000
0!
0Q
#139000
1!
1Q
1"!
0#!
0V
0T
0U
1S
1W
0p
1V
1U
0W
1p
1X
0o
0X
1o
#140000
0!
0Q
#141000
1!
1Q
1#!
1T
0S
0V
0U
1W
0p
1q
0q
1X
0o
#142000
0!
0Q
#143000
1!
1Q
0!!
1~
0"!
0#!
0W
1p
0Y
1V
0T
0X
1U
1S
1Y
0p
1X
1o
1Z
0U
0Z
0o
#144000
0!
0Q
#145000
1!
1Q
1#!
1T
0S
1U
#146000
0!
0Q
#147000
1!
1Q
1"!
0#!
0V
0T
0U
1S
1p
1V
1U
0p
1o
0o
#148000
0!
0Q
#149000
1!
1Q
1#!
1T
0S
0V
0U
1p
1o
#150000
0!
0Q
#151000
1!
1Q
1!!
0"!
0#!
1W
0p
1V
0T
1U
1S
0Y
0W
1p
0X
0o
0U
1Y
1Z
1X
1o
0Z
#152000
0!
0Q
#153000
1!
1Q
1#!
1T
0S
1U
#154000
0!
0Q
#155000
1!
1Q
1"!
0#!
0V
0T
0U
1S
1W
0p
1V
1U
0Y
0W
1p
0X
0o
1Y
1Z
1X
1o
0Z
#156000
0!
0Q
#157000
1!
1Q
1#!
1T
0S
0V
0U
1W
0p
0Y
0X
0o
1Z
#158000
0!
0Q
#159000
1!
1Q
0!!
1}
0~
0"!
0#!
0W
1p
1[
1Y
1V
0T
0Z
1X
1U
1S
0[
0p
0X
1o
1\
1Z
0U
0\
0o
#160000
0!
0Q
#161000
1!
1Q
1#!
1T
0S
1U
#162000
0!
0Q
#163000
1!
1Q
1"!
0#!
0V
0T
0U
1S
1p
1V
1U
0p
1o
0o
#164000
0!
0Q
#165000
1!
1Q
1#!
1T
0S
0V
0U
1p
1q
1o
#166000
0!
0Q
#167000
1!
1Q
1!!
0"!
0#!
1W
0p
1V
0T
1U
1S
0q
0W
1p
1X
0o
0U
1o
0X
#168000
0!
0Q
#169000
1!
1Q
1#!
1T
0S
1q
1U
0q
#170000
0!
0Q
#171000
1!
1Q
1"!
0#!
0V
0T
0U
1S
1W
0p
1V
1U
0W
1p
1X
0o
0X
1o
#172000
0!
0Q
#173000
1!
1Q
1#!
1T
0S
0V
0U
1W
0p
1q
0q
1X
0o
#174000
0!
0Q
#175000
1!
1Q
0!!
1~
0"!
0#!
0W
1p
0Y
1V
0T
0X
1U
1S
1Y
1[
0p
1X
1o
0Z
0U
0[
1Z
1\
0o
0\
#176000
0!
0Q
#177000
1!
1Q
1#!
1T
0S
1U
#178000
0!
0Q
#179000
1!
1Q
1"!
0#!
0V
0T
0U
1S
1p
1V
1U
0p
1o
0o
#180000
0!
0Q
#181000
1!
1Q
1#!
1T
0S
0V
0U
1p
1o
#182000
0!
0Q
#183000
1!
1Q
1!!
0"!
0#!
1W
0p
1V
0T
1U
1S
0Y
0W
1p
0X
0o
0U
1[
1Y
0Z
1X
1o
0[
1\
1Z
0\
#184000
0!
0Q
#185000
1!
1Q
1#!
1T
0S
1U
#186000
0!
0Q
#187000
1!
1Q
1"!
0#!
0V
0T
0U
1S
1W
0p
1V
1U
0Y
0W
1p
0X
0o
1[
1Y
0Z
1X
1o
0[
1\
1Z
0\
#188000
0!
0Q
#189000
1!
1Q
1#!
1T
0S
0V
0U
1W
0p
0Y
0X
0o
1[
0Z
1\
#190000
0!
0Q
#191000
1!
1Q
0!!
1|
0}
0~
0"!
0#!
0W
1p
0]
0[
1Y
1V
0T
0\
1Z
1X
1U
1S
1^
0m
1]
0p
0X
1o
1\
0Z
0U
1_
0^
1m
0l
0o
0_
1h
1l
0h
#192000
0!
0Q
#193000
1!
1Q
1#!
1T
0S
1U
#194000
0!
0Q
#195000
1!
1Q
1"!
0#!
0V
0T
0U
1S
1p
1V
1U
0p
1o
0o
#196000
0!
0Q
#197000
1!
1Q
1#!
1T
0S
0V
0U
1p
1q
1o
#198000
0!
0Q
#199000
1!
1Q
1!!
0"!
0#!
1W
0p
1V
0T
1U
1S
0q
0W
1p
1X
0o
0U
1o
0X
#200000
0!
0Q
#201000
1!
1Q
1#!
1T
0S
1q
1U
0q
#202000
0!
0Q
#203000
1!
1Q
1"!
0#!
0V
0T
0U
1S
1W
0p
1V
1U
0W
1p
1X
0o
0X
1o
#204000
0!
0Q
#205000
1!
1Q
1#!
1T
0S
0V
0U
1W
0p
1q
0q
1X
0o
#206000
0!
0Q
#207000
1!
1Q
0!!
1~
0"!
0#!
0W
1p
0Y
1V
0T
0X
1U
1S
1Y
0p
1X
1o
1Z
0U
0Z
0o
#208000
0!
0Q
#209000
1!
1Q
1#!
1T
0S
1U
#210000
0!
0Q
#211000
1!
1Q
1"!
0#!
0V
0T
0U
1S
1p
1V
1U
0p
1o
0o
#212000
0!
0Q
#213000
1!
1Q
1#!
1T
0S
0V
0U
1p
1o
#214000
0!
0Q
#215000
1!
1Q
1!!
0"!
0#!
1W
0p
1V
0T
1U
1S
0Y
0W
1p
0X
0o
0U
1Y
1Z
1X
1o
0Z
#216000
0!
0Q
#217000
1!
1Q
1#!
1T
0S
1U
#218000
0!
0Q
#219000
1!
1Q
1"!
0#!
0V
0T
0U
1S
1W
0p
1V
1U
0Y
0W
1p
0X
0o
1Y
1Z
1X
1o
0Z
#220000
0!
0Q
#221000
1!
1Q
1#!
1T
0S
0V
0U
1W
0p
0Y
0X
0o
1Z
#222000
0!
0Q
#223000
1!
1Q
0!!
1}
0~
0"!
0#!
0W
1p
1[
1Y
1V
0T
0Z
1X
1U
1S
0]
0[
0p
0X
1o
0\
1Z
0U
1^
0m
1]
1\
0o
1_
0^
1m
0l
0_
1h
1l
0h
#224000
0!
0Q
#225000
1!
1Q
1#!
1T
0S
1U
#226000
0!
0Q
#227000
1!
1Q
1"!
0#!
0V
0T
0U
1S
1p
1V
1U
0p
1o
0o
#228000
0!
0Q
#229000
1!
1Q
1#!
1T
0S
0V
0U
1p
1q
1o
#230000
0!
0Q
#231000
1!
1Q
1!!
0"!
0#!
1W
0p
1V
0T
1U
1S
0q
0W
1p
1X
0o
0U
1o
0X
#232000
0!
0Q
#233000
1!
1Q
1#!
1T
0S
1q
1U
0q
#234000
0!
0Q
#235000
1!
1Q
1"!
0#!
0V
0T
0U
1S
1W
0p
1V
1U
0W
1p
1X
0o
0X
1o
#236000
0!
0Q
#237000
1!
1Q
1#!
1T
0S
0V
0U
1W
0p
1q
0q
1X
0o
#238000
0!
0Q
#239000
1!
1Q
0!!
1~
0"!
0#!
0W
1p
0Y
1V
0T
0X
1U
1S
1Y
1[
0p
1X
1o
0Z
0U
0[
0]
1Z
0\
0o
1]
1^
0m
1\
0^
1m
1_
0l
0_
1l
1h
0h
#240000
0!
0Q
#241000
1!
1Q
1#!
1T
0S
1U
#242000
0!
0Q
#243000
1!
1Q
1"!
0#!
0V
0T
0U
1S
1p
1V
1U
0p
1o
0o
#244000
0!
0Q
#245000
1!
1Q
1#!
1T
0S
0V
0U
1p
1o
#246000
0!
0Q
#247000
1!
1Q
1!!
0"!
0#!
1W
0p
1V
0T
1U
1S
0Y
0W
1p
0X
0o
0U
1[
1Y
0Z
1X
1o
0]
0[
0\
1Z
1^
0m
1]
1\
1_
0^
1m
0l
0_
1h
1l
0h
#248000
0!
0Q
#249000
1!
1Q
1#!
1T
0S
1U
#250000
0!
0Q
#251000
1!
1Q
1"!
0#!
0V
0T
0U
1S
1W
0p
1V
1U
0Y
0W
1p
0X
0o
1[
1Y
0Z
1X
1o
0]
0[
0\
1Z
1^
0m
1]
1\
1_
0^
1m
0l
0_
1h
1l
0h
#252000
0!
0Q
#253000
1!
1Q
1#!
1T
0S
0V
0U
1W
0p
0Y
0X
0o
1[
0Z
0]
0\
1^
0m
1_
0l
1h
#254000
0!
0Q
#255000
1!
1Q
0!!
0{
1z
0|
0}
0~
0"!
0#!
0W
1p
0^
1m
0i
0_
1]
0[
1Y
1V
0T
1\
1Z
1X
1U
1S
1i
1_
1j
0m
0p
0X
1o
1l
0h
0\
0Z
0U
0j
1h
1R
0l
0o
0R
#256000
0!
0Q
#257000
1!
1Q
1#!
1T
0S
1U
#258000
0!
0Q
#259000
1!
1Q
1"!
0#!
0V
0T
0U
1S
1p
1V
1U
0p
1o
0o
#260000
0!
0Q
#261000
1!
1Q
1#!
1T
0S
0V
0U
1p
1q
1o
#262000
0!
0Q
#263000
1!
1Q
1!!
0"!
0#!
1W
0p
1V
0T
1U
1S
0q
0W
1p
1X
0o
0U
1o
0X
#264000
0!
0Q
#265000
1!
1Q
1#!
1T
0S
1q
1U
0q
#266000
0!
0Q
#267000
1!
1Q
1"!
0#!
0V
0T
0U
1S
1W
0p
1V
1U
0W
1p
1X
0o
0X
1o
#268000
0!
0Q
#269000
1!
1Q
1#!
1T
0S
0V
0U
1W
0p
1q
0q
1X
0o
#270000
0!
0Q
#271000
1!
1Q
0!!
1~
0"!
0#!
0W
1p
0Y
1V
0T
0X
1U
1S
1Y
0p
1X
1o
1Z
0U
0Z
0o
#272000
0!
0Q
#273000
1!
1Q
1#!
1T
0S
1U
#274000
0!
0Q
#275000
1!
1Q
1"!
0#!
0V
0T
0U
1S
1p
1V
1U
0p
1o
0o
#276000
0!
0Q
#277000
1!
1Q
1#!
1T
0S
0V
0U
1p
1o
#278000
0!
0Q
#279000
1!
1Q
1!!
0"!
0#!
1W
0p
1V
0T
1U
1S
0Y
0W
1p
0X
0o
0U
1Y
1Z
1X
1o
0Z
#280000
0!
0Q
#281000
1!
1Q
1#!
1T
0S
1U
#282000
0!
0Q
#283000
1!
1Q
1"!
0#!
0V
0T
0U
1S
1W
0p
1V
1U
0Y
0W
1p
0X
0o
1Y
1Z
1X
1o
0Z
#284000
0!
0Q
#285000
1!
1Q
1#!
1T
0S
0V
0U
1W
0p
0Y
0X
0o
1Z
#286000
0!
0Q
#287000
1!
1Q
0!!
1}
0~
0"!
0#!
0W
1p
1[
1Y
1V
0T
0Z
1X
1U
1S
0[
0p
0X
1o
1\
1Z
0U
0\
0o
#288000
0!
0Q
#289000
1!
1Q
1#!
1T
0S
1U
#290000
0!
0Q
#291000
1!
1Q
1"!
0#!
0V
0T
0U
1S
1p
1V
1U
0p
1o
0o
#292000
0!
0Q
#293000
1!
1Q
1#!
1T
0S
0V
0U
1p
1q
1o
#294000
0!
0Q
#295000
1!
1Q
1!!
0"!
0#!
1W
0p
1V
0T
1U
1S
0q
0W
1p
1X
0o
0U
1o
0X
#296000
0!
0Q
#297000
1!
1Q
1#!
1T
0S
1q
1U
0q
#298000
0!
0Q
#299000
1!
1Q
1"!
0#!
0V
0T
0U
1S
1W
0p
1V
1U
0W
1p
1X
0o
0X
1o
#300000
0!
0Q
#301000
1!
1Q
1#!
1T
0S
0V
0U
1W
0p
1q
0q
1X
0o
#302000
0!
0Q
#303000
1!
1Q
0!!
1~
0"!
0#!
0W
1p
0Y
1V
0T
0X
1U
1S
1Y
1[
0p
1X
1o
0Z
0U
0[
1Z
1\
0o
0\
#304000
0!
0Q
#305000
1!
1Q
1#!
1T
0S
1U
#306000
0!
0Q
#307000
1!
1Q
1"!
0#!
0V
0T
0U
1S
1p
1V
1U
0p
1o
0o
#308000
0!
0Q
#309000
1!
1Q
1#!
1T
0S
0V
0U
1p
1o
#310000
0!
0Q
#311000
1!
1Q
1!!
0"!
0#!
1W
0p
1V
0T
1U
1S
0Y
0W
1p
0X
0o
0U
1[
1Y
0Z
1X
1o
0[
1\
1Z
0\
#312000
0!
0Q
#313000
1!
1Q
1#!
1T
0S
1U
#314000
0!
0Q
#315000
1!
1Q
1"!
0#!
0V
0T
0U
1S
1W
0p
1V
1U
0Y
0W
1p
0X
0o
1[
1Y
0Z
1X
1o
0[
1\
1Z
0\
#316000
0!
0Q
#317000
1!
1Q
1#!
1T
0S
0V
0U
1W
0p
0Y
0X
0o
1[
0Z
1\
#318000
0!
0Q
#319000
1!
1Q
0!!
1|
0}
0~
0"!
0#!
0W
1p
0]
0[
1Y
1V
0T
0\
1Z
1X
1U
1S
1m
1]
0p
0X
1o
1\
0Z
0U
0m
1l
0o
0l
#320000
0!
0Q
#321000
1!
1Q
1#!
1T
0S
1U
#322000
0!
0Q
#323000
1!
1Q
1"!
0#!
0V
0T
0U
1S
1p
1V
1U
0p
1o
0o
#324000
0!
0Q
#325000
1!
1Q
1#!
1T
0S
0V
0U
1p
1q
1o
#326000
0!
0Q
#327000
1!
1Q
1!!
0"!
0#!
1W
0p
1V
0T
1U
1S
0q
0W
1p
1X
0o
0U
1o
0X
#328000
0!
0Q
#329000
1!
1Q
1#!
1T
0S
1q
1U
0q
#330000
0!
0Q
#331000
1!
1Q
1"!
0#!
0V
0T
0U
1S
1W
0p
1V
1U
0W
1p
1X
0o
0X
1o
#332000
0!
0Q
#333000
1!
1Q
1#!
1T
0S
0V
0U
1W
0p
1q
0q
1X
0o
#334000
0!
0Q
#335000
1!
1Q
0!!
1~
0"!
0#!
0W
1p
0Y
1V
0T
0X
1U
1S
1Y
0p
1X
1o
1Z
0U
0Z
0o
#336000
0!
0Q
#337000
1!
1Q
1#!
1T
0S
1U
#338000
0!
0Q
#339000
1!
1Q
1"!
0#!
0V
0T
0U
1S
1p
1V
1U
0p
1o
0o
#340000
0!
0Q
#341000
1!
1Q
1#!
1T
0S
0V
0U
1p
1o
#342000
0!
0Q
#343000
1!
1Q
1!!
0"!
0#!
1W
0p
1V
0T
1U
1S
0Y
0W
1p
0X
0o
0U
1Y
1Z
1X
1o
0Z
#344000
0!
0Q
#345000
1!
1Q
1#!
1T
0S
1U
#346000
0!
0Q
#347000
1!
1Q
1"!
0#!
0V
0T
0U
1S
1W
0p
1V
1U
0Y
0W
1p
0X
0o
1Y
1Z
1X
1o
0Z
#348000
0!
0Q
#349000
1!
1Q
1#!
1T
0S
0V
0U
1W
0p
0Y
0X
0o
1Z
#350000
0!
0Q
#351000
1!
1Q
0!!
1}
0~
0"!
0#!
0W
1p
1[
1Y
1V
0T
0Z
1X
1U
1S
0]
0[
0p
0X
1o
0\
1Z
0U
1m
1]
1\
0o
0m
1l
0l
#352000
0!
0Q
#353000
1!
1Q
1#!
1T
0S
1U
#354000
0!
0Q
#355000
1!
1Q
1"!
0#!
0V
0T
0U
1S
1p
1V
1U
0p
1o
0o
#356000
0!
0Q
#357000
1!
1Q
1#!
1T
0S
0V
0U
1p
1q
1o
#358000
0!
0Q
#359000
1!
1Q
1!!
0"!
0#!
1W
0p
1V
0T
1U
1S
0q
0W
1p
1X
0o
0U
1o
0X
#360000
0!
0Q
#361000
1!
1Q
1#!
1T
0S
1q
1U
0q
#362000
0!
0Q
#363000
1!
1Q
1"!
0#!
0V
0T
0U
1S
1W
0p
1V
1U
0W
1p
1X
0o
0X
1o
#364000
0!
0Q
#365000
1!
1Q
1#!
1T
0S
0V
0U
1W
0p
1q
0q
1X
0o
#366000
0!
0Q
#367000
1!
1Q
0!!
1~
0"!
0#!
0W
1p
0Y
1V
0T
0X
1U
1S
1Y
1[
0p
1X
1o
0Z
0U
0[
0]
1Z
0\
0o
1]
1m
1\
0m
1l
0l
#368000
0!
0Q
#369000
1!
1Q
1#!
1T
0S
1U
#370000
0!
0Q
#371000
1!
1Q
1"!
0#!
0V
0T
0U
1S
1p
1V
1U
0p
1o
0o
#372000
0!
0Q
#373000
1!
1Q
1#!
1T
0S
0V
0U
1p
1o
#374000
0!
0Q
#375000
1!
1Q
1!!
0"!
0#!
1W
0p
1V
0T
1U
1S
0Y
0W
1p
0X
0o
0U
1[
1Y
0Z
1X
1o
0]
0[
0\
1Z
1m
1]
1\
0m
1l
0l
#376000
0!
0Q
#377000
1!
1Q
1#!
1T
0S
1U
#378000
0!
0Q
#379000
1!
1Q
1"!
0#!
0V
0T
0U
1S
1W
0p
1V
1U
0Y
0W
1p
0X
0o
1[
1Y
0Z
1X
1o
0]
0[
0\
1Z
1m
1]
1\
0m
1l
0l
#380000
0!
0Q
#381000
1!
1Q
1#!
1T
0S
0V
0U
1W
0p
0Y
0X
0o
1[
0Z
0]
0\
1m
1n
1l
